Introduction to Survey Data Cleaning Using Tidyverse in R
…
.pull-right[

```r
gpc <-
  readr::read_csv(
   "./data/ZA5667_v1-0-0_Stata14_synthetic-data.csv"
  )

gpc
```

.tinylicious[

```
## # A tibble: 3,765 x 111
##    cohort   sex age_cat education_cat intention_to_vote choice_of_party political_orien~
##     <dbl> <dbl>   <dbl>         <dbl>             <dbl>           <dbl>            <dbl>
##  1      2     1      10             3                 2              98                7
##  2      1     2       2             3                 2               5                3
##  3      1     1       8             1                 2               2                7
##  4      2     2       1             3                 2              98                1
##  5      3     2       7             3                 2               5                2
##  6      2     2       7             2                 2               1                2
##  7      1     2       7             3                 2               5                3
##  8      2     1       7             3                NA              NA                3
##  9      2     2       8             3                 2              98                3
## 10      2     2       6             2                NA              98                5
## # ... with 3,755 more rows, and 104 more variables: marstat <dbl>, household <dbl>,
## #   hzcy001a <dbl>, hzcy002a <dbl>, hzcy003a <dbl>, hzcy004a <dbl>, hzcy005a <dbl>,
## #   hzcy006a <dbl>, hzcy007a <dbl>, hzcy008a <dbl>, hzcy009a <dbl>, hzcy010a <dbl>,
## #   hzcy011a <dbl>, hzcy012a <dbl>, hzcy013a <dbl>, hzcy014a <dbl>, hzcy015a <dbl>,
## #   hzcy016a <dbl>, hzcy018a <dbl>, hzcy019a <dbl>, hzcy020a <dbl>, hzcy021a <dbl>,
## #   hzcy022a <dbl>, hzcy023a <dbl>, hzcy024a <dbl>, hzcy025a <dbl>, hzcy026a <dbl>,
## #   hzcy027a <dbl>, hzcy028a <dbl>, hzcy029a <dbl>, hzcy030a <dbl>, hzcy031a <dbl>,
## #   hzcy032a <dbl>, hzcy033a <dbl>, hzcy034a <dbl>, hzcy035a <dbl>, hzcy036a <dbl>,
## #   hzcy037a <dbl>, hzcy038a <dbl>, hzcy039a <dbl>, hzcy040a <dbl>, hzcy041a <dbl>,
…
## Converting data into tibbles

We can also convert any `data.frame` into a `tibble`:

```r
gpc <- as.data.frame(gpc)

tibble::as_tibble(gpc)
```

```
## # A tibble: 3,765 x 111
##    cohort   sex age_cat education_cat intention_to_vote choice_of_party political_orien~
##     <dbl> <dbl>   <dbl>         <dbl>             <dbl>           <dbl>            <dbl>
##  1      2     1      10             3                 2              98                7
##  2      1     2       2             3                 2               5                3
##  3      1     1       8             1                 2               2                7
##  4      2     2       1             3                 2              98                1
##  5      3     2       7             3                 2               5                2
##  6      2     2       7             2                 2               1                2
##  7      1     2       7             3                 2               5                3
##  8      2     1       7             3                NA              NA                3
##  9      2     2       8             3                 2              98                3
## 10      2     2       6             2                NA              98                5
## # ... with 3,755 more rows, and 104 more variables: marstat <dbl>, household <dbl>,
## #   hzcy001a <dbl>, hzcy002a <dbl>, hzcy003a <dbl>, hzcy004a <dbl>, hzcy005a <dbl>,
## #   hzcy006a <dbl>, hzcy007a <dbl>, hzcy008a <dbl>, hzcy009a <dbl>, hzcy010a <dbl>,
## #   hzcy011a <dbl>, hzcy012a <dbl>, hzcy013a <dbl>, hzcy014a <dbl>, hzcy015a <dbl>,
## #   hzcy016a <dbl>, hzcy018a <dbl>, hzcy019a <dbl>, hzcy020a <dbl>, hzcy021a <dbl>,
## #   hzcy022a <dbl>, hzcy023a <dbl>, hzcy024a <dbl>, hzcy025a <dbl>, hzcy026a <dbl>,
## #   hzcy027a <dbl>, hzcy028a <dbl>, hzcy029a <dbl>, hzcy030a <dbl>, hzcy031a <dbl>,
## #   hzcy032a <dbl>, hzcy033a <dbl>, hzcy034a <dbl>, hzcy035a <dbl>, hzcy036a <dbl>,
## #   hzcy037a <dbl>, hzcy038a <dbl>, hzcy039a <dbl>, hzcy040a <dbl>, hzcy041a <dbl>,
…
