Introduction to Survey Data Cleaning Using Tidyverse in R
…
Note the column specifications. `readr` 'guesses' them based on the first 1000 observations (we will come back to this later).

---

## A readr example: `read_csv()`

```r
gpc_csv
```

.tiny[

```
## # A tibble: 3,765 x 111
##    cohort   sex age_cat education_cat intention_to_vote choice_of_party political_orientat~ marstat household hzcy001a hzcy002a hzcy003a hzcy004a hzcy005a
##     <dbl> <dbl>   <dbl>         <dbl>             <dbl>           <dbl>               <dbl>   <dbl>     <dbl>    <dbl>    <dbl>    <dbl>    <dbl>    <dbl>
##  1      2     1      10             3                 2              98                   7       1         2        4        6        3        6        4
##  2      1     2       2             3                 2               5                   3       2         2        4        6        6        6        4
##  3      1     1       8             1                 2               2                   7       1         2        2        2        2        2        2
##  4      2     2       1             3                 2              98                   1       2         3       NA       NA       NA       NA       NA
##  5      3     2       7             3                 2               5                   2       2         2        6        6        4        6        6
##  6      2     2       7             2                 2               1                   2       1         2        4        4        3        4        4
##  7      1     2       7             3                 2               5                   3       1         1        4        4        3        4        4
##  8      2     1       7             3                NA              NA                   3       1         3       NA       NA       NA       NA       NA
##  9      2     2       8             3                 2              98                   3       1         2       NA       NA       NA       NA       NA
## 10      2     2       6             2                NA              98                   5       1         2        4        6        3        6        7
## # ... with 3,755 more rows, and 97 more variables: hzcy006a <dbl>, hzcy007a <dbl>, hzcy008a <dbl>, hzcy009a <dbl>, hzcy010a <dbl>, hzcy011a <dbl>,
## #   hzcy012a <dbl>, hzcy013a <dbl>, hzcy014a <dbl>, hzcy015a <dbl>, hzcy016a <dbl>, hzcy018a <dbl>, hzcy019a <dbl>, hzcy020a <dbl>, hzcy021a <dbl>,
## #   hzcy022a <dbl>, hzcy023a <dbl>, hzcy024a <dbl>, hzcy025a <dbl>, hzcy026a <dbl>, hzcy027a <dbl>, hzcy028a <dbl>, hzcy029a <dbl>, hzcy030a <dbl>,
## #   hzcy031a <dbl>, hzcy032a <dbl>, hzcy033a <dbl>, hzcy034a <dbl>, hzcy035a <dbl>, hzcy036a <dbl>, hzcy037a <dbl>, hzcy038a <dbl>, hzcy039a <dbl>,
## #   hzcy040a <dbl>, hzcy041a <dbl>, hzcy042a <dbl>, hzcy043a <dbl>, hzcy044a <dbl>, hzcy045a <dbl>, hzcy046a <dbl>, hzcy047a <dbl>, hzcy048a <dbl>,
## #   hzcy049a <dbl>, hzcy050a <dbl>, hzcy051a <dbl>, hzcy052a <dbl>, hzcy053a <dbl>, hzcy054a <dbl>, hzcy055a <dbl>, hzcy056a <dbl>, hzcy057a <dbl>,
## #   hzcy058a <dbl>, hzcy059a <dbl>, hzcy060a <dbl>, hzcy061a <dbl>, hzcy062a <dbl>, hzcy063a <dbl>, hzcy064a <dbl>, hzcy065a <dbl>, hzcy066a <dbl>,
## #   hzcy067a <dbl>, hzcy068a <dbl>, hzcy069a <dbl>, hzcy070a <dbl>, hzcy071a <dbl>, hzcy072a <dbl>, hzcy073a <dbl>, hzcy074a <dbl>, hzcy075a <dbl>,
## #   hzcy076a <dbl>, hzcy077a <dbl>, hzcy078a <dbl>, hzcy079a <dbl>, hzcy080a <dbl>, hzcy081a <dbl>, hzcy083a <dbl>, hzcy084a <dbl>, hzcy085a <dbl>,
…
No output ☹️

---

## A readxl example: `read_excel()`

```r
gpc_xlsx
```

.tiny[

```
## # A tibble: 3,765 x 111
##    cohort   sex age_cat education_cat intention_to_vote choice_of_party political_orientat~ marstat household hzcy001a hzcy002a hzcy003a hzcy004a hzcy005a
##     <dbl> <dbl>   <dbl>         <dbl>             <dbl>           <dbl>               <dbl>   <dbl>     <dbl>    <dbl>    <dbl>    <dbl>    <dbl>    <dbl>
##  1      2     1      10             3                 2              98                   7       1         2        4        6        3        6        4
##  2      1     2       2             3                 2               5                   3       2         2        4        6        6        6        4
##  3      1     1       8             1                 2               2                   7       1         2        2        2        2        2        2
##  4      2     2       1             3                 2              98                   1       2         3       NA       NA       NA       NA       NA
##  5      3     2       7             3                 2               5                   2       2         2        6        6        4        6        6
##  6      2     2       7             2                 2               1                   2       1         2        4        4        3        4        4
##  7      1     2       7             3                 2               5                   3       1         1        4        4        3        4        4
##  8      2     1       7             3                NA              NA                   3       1         3       NA       NA       NA       NA       NA
##  9      2     2       8             3                 2              98                   3       1         2       NA       NA       NA       NA       NA
## 10      2     2       6             2                NA              98                   5       1         2        4        6        3        6        7
## # ... with 3,755 more rows, and 97 more variables: hzcy006a <dbl>, hzcy007a <dbl>, hzcy008a <dbl>, hzcy009a <dbl>, hzcy010a <dbl>, hzcy011a <dbl>,
## #   hzcy012a <dbl>, hzcy013a <dbl>, hzcy014a <dbl>, hzcy015a <dbl>, hzcy016a <dbl>, hzcy018a <dbl>, hzcy019a <dbl>, hzcy020a <dbl>, hzcy021a <dbl>,
## #   hzcy022a <dbl>, hzcy023a <dbl>, hzcy024a <dbl>, hzcy025a <dbl>, hzcy026a <dbl>, hzcy027a <dbl>, hzcy028a <dbl>, hzcy029a <dbl>, hzcy030a <dbl>,
## #   hzcy031a <dbl>, hzcy032a <dbl>, hzcy033a <dbl>, hzcy034a <dbl>, hzcy035a <dbl>, hzcy036a <dbl>, hzcy037a <dbl>, hzcy038a <dbl>, hzcy039a <dbl>,
## #   hzcy040a <dbl>, hzcy041a <dbl>, hzcy042a <dbl>, hzcy043a <dbl>, hzcy044a <dbl>, hzcy045a <dbl>, hzcy046a <dbl>, hzcy047a <dbl>, hzcy048a <dbl>,
## #   hzcy049a <dbl>, hzcy050a <dbl>, hzcy051a <dbl>, hzcy052a <dbl>, hzcy053a <dbl>, hzcy054a <dbl>, hzcy055a <dbl>, hzcy056a <dbl>, hzcy057a <dbl>,
## #   hzcy058a <dbl>, hzcy059a <dbl>, hzcy060a <dbl>, hzcy061a <dbl>, hzcy062a <dbl>, hzcy063a <dbl>, hzcy064a <dbl>, hzcy065a <dbl>, hzcy066a <dbl>,
## #   hzcy067a <dbl>, hzcy068a <dbl>, hzcy069a <dbl>, hzcy070a <dbl>, hzcy071a <dbl>, hzcy072a <dbl>, hzcy073a <dbl>, hzcy074a <dbl>, hzcy075a <dbl>,
## #   hzcy076a <dbl>, hzcy077a <dbl>, hzcy078a <dbl>, hzcy079a <dbl>, hzcy080a <dbl>, hzcy081a <dbl>, hzcy083a <dbl>, hzcy084a <dbl>, hzcy085a <dbl>,
…
Note: The [`gesisdata` package](https://cran.r-project.org/web/packages/gesisdata/index.html) allows direct access to the *GESIS* data `R`, given that you have [proper credentials](https://login.gesis.org/).

---

## A haven example: `read_stata()` 

```r
gpc_dta
```

.tiny[

```
## # A tibble: 3,765 x 111
##    cohort   sex age_cat education_cat intention_to_vote choice_of_party political_orientat~ marstat household hzcy001a hzcy002a hzcy003a hzcy004a hzcy005a
##     <dbl> <dbl>   <dbl>         <dbl>             <dbl>           <dbl>               <dbl>   <dbl>     <dbl>    <dbl>    <dbl>    <dbl>    <dbl>    <dbl>
##  1      2     1      10             3                 2              98                   7       1         2        4        6        3        6        4
##  2      1     2       2             3                 2               5                   3       2         2        4        6        6        6        4
##  3      1     1       8             1                 2               2                   7       1         2        2        2        2        2        2
##  4      2     2       1             3                 2              98                   1       2         3       NA       NA       NA       NA       NA
##  5      3     2       7             3                 2               5                   2       2         2        6        6        4        6        6
##  6      2     2       7             2                 2               1                   2       1         2        4        4        3        4        4
##  7      1     2       7             3                 2               5                   3       1         1        4        4        3        4        4
##  8      2     1       7             3                NA              NA                   3       1         3       NA       NA       NA       NA       NA
##  9      2     2       8             3                 2              98                   3       1         2       NA       NA       NA       NA       NA
## 10      2     2       6             2                NA              98                   5       1         2        4        6        3        6        7
## # ... with 3,755 more rows, and 97 more variables: hzcy006a <dbl>, hzcy007a <dbl>, hzcy008a <dbl>, hzcy009a <dbl>, hzcy010a <dbl>, hzcy011a <dbl>,
## #   hzcy012a <dbl>, hzcy013a <dbl>, hzcy014a <dbl>, hzcy015a <dbl>, hzcy016a <dbl>, hzcy018a <dbl>, hzcy019a <dbl>, hzcy020a <dbl>, hzcy021a <dbl>,
## #   hzcy022a <dbl>, hzcy023a <dbl>, hzcy024a <dbl>, hzcy025a <dbl>, hzcy026a <dbl>, hzcy027a <dbl>, hzcy028a <dbl>, hzcy029a <dbl>, hzcy030a <dbl>,
## #   hzcy031a <dbl>, hzcy032a <dbl>, hzcy033a <dbl>, hzcy034a <dbl>, hzcy035a <dbl>, hzcy036a <dbl>, hzcy037a <dbl>, hzcy038a <dbl>, hzcy039a <dbl>,
## #   hzcy040a <dbl>, hzcy041a <dbl>, hzcy042a <dbl>, hzcy043a <dbl>, hzcy044a <dbl>, hzcy045a <dbl>, hzcy046a <dbl>, hzcy047a <dbl>, hzcy048a <dbl>,
## #   hzcy049a <dbl>, hzcy050a <dbl>, hzcy051a <dbl>, hzcy052a <dbl>, hzcy053a <dbl>, hzcy054a <dbl>, hzcy055a <dbl>, hzcy056a <dbl>, hzcy057a <dbl>,
## #   hzcy058a <dbl>, hzcy059a <dbl>, hzcy060a <dbl>, hzcy061a <dbl>, hzcy062a <dbl>, hzcy063a <dbl>, hzcy064a <dbl>, hzcy065a <dbl>, hzcy066a <dbl>,
## #   hzcy067a <dbl>, hzcy068a <dbl>, hzcy069a <dbl>, hzcy070a <dbl>, hzcy071a <dbl>, hzcy072a <dbl>, hzcy073a <dbl>, hzcy074a <dbl>, hzcy075a <dbl>,
## #   hzcy076a <dbl>, hzcy077a <dbl>, hzcy078a <dbl>, hzcy079a <dbl>, hzcy080a <dbl>, hzcy081a <dbl>, hzcy083a <dbl>, hzcy084a <dbl>, hzcy085a <dbl>,
…
class: middle

.center[

```r
gpc_csv  ...  pc_xlsx  ...  gpc_dta
```
]

.pull-left[
.tinylicious[

```
## # A tibble: 3,765 x 111
##    cohort   sex age_cat education_cat intention_to_vote choice_of_party political_orientat~ marstat household hzcy001a hzcy002a hzcy003a hzcy004a hzcy005a
##     <dbl> <dbl>   <dbl>         <dbl>             <dbl>           <dbl>               <dbl>   <dbl>     <dbl>    <dbl>    <dbl>    <dbl>    <dbl>    <dbl>
##  1      2     1      10             3                 2              98                   7       1         2        4        6        3        6        4
##  2      1     2       2             3                 2               5                   3       2         2        4        6        6        6        4
##  3      1     1       8             1                 2               2                   7       1         2        2        2        2        2        2
##  4      2     2       1             3                 2              98                   1       2         3       NA       NA       NA       NA       NA
##  5      3     2       7             3                 2               5                   2       2         2        6        6        4        6        6
##  6      2     2       7             2                 2               1                   2       1         2        4        4        3        4        4
##  7      1     2       7             3                 2               5                   3       1         1        4        4        3        4        4
##  8      2     1       7             3                NA              NA                   3       1         3       NA       NA       NA       NA       NA
##  9      2     2       8             3                 2              98                   3       1         2       NA       NA       NA       NA       NA
## 10      2     2       6             2                NA              98                   5       1         2        4        6        3        6        7
## # ... with 3,755 more rows, and 97 more variables: hzcy006a <dbl>, hzcy007a <dbl>, hzcy008a <dbl>, hzcy009a <dbl>, hzcy010a <dbl>, hzcy011a <dbl>,
## #   hzcy012a <dbl>, hzcy013a <dbl>, hzcy014a <dbl>, hzcy015a <dbl>, hzcy016a <dbl>, hzcy018a <dbl>, hzcy019a <dbl>, hzcy020a <dbl>, hzcy021a <dbl>,
## #   hzcy022a <dbl>, hzcy023a <dbl>, hzcy024a <dbl>, hzcy025a <dbl>, hzcy026a <dbl>, hzcy027a <dbl>, hzcy028a <dbl>, hzcy029a <dbl>, hzcy030a <dbl>,
## #   hzcy031a <dbl>, hzcy032a <dbl>, hzcy033a <dbl>, hzcy034a <dbl>, hzcy035a <dbl>, hzcy036a <dbl>, hzcy037a <dbl>, hzcy038a <dbl>, hzcy039a <dbl>,
## #   hzcy040a <dbl>, hzcy041a <dbl>, hzcy042a <dbl>, hzcy043a <dbl>, hzcy044a <dbl>, hzcy045a <dbl>, hzcy046a <dbl>, hzcy047a <dbl>, hzcy048a <dbl>,
## #   hzcy049a <dbl>, hzcy050a <dbl>, hzcy051a <dbl>, hzcy052a <dbl>, hzcy053a <dbl>, hzcy054a <dbl>, hzcy055a <dbl>, hzcy056a <dbl>, hzcy057a <dbl>,
## #   hzcy058a <dbl>, hzcy059a <dbl>, hzcy060a <dbl>, hzcy061a <dbl>, hzcy062a <dbl>, hzcy063a <dbl>, hzcy064a <dbl>, hzcy065a <dbl>, hzcy066a <dbl>,
## #   hzcy067a <dbl>, hzcy068a <dbl>, hzcy069a <dbl>, hzcy070a <dbl>, hzcy071a <dbl>, hzcy072a <dbl>, hzcy073a <dbl>, hzcy074a <dbl>, hzcy075a <dbl>,
## #   hzcy076a <dbl>, hzcy077a <dbl>, hzcy078a <dbl>, hzcy079a <dbl>, hzcy080a <dbl>, hzcy081a <dbl>, hzcy083a <dbl>, hzcy084a <dbl>, hzcy085a <dbl>,
…
---

```r
gpc
```

```
## # A tibble: 3,765 x 111
##    cohort   sex age_cat education_cat intention_to_vote choice_of_party political_orientat~ marstat household hzcy001a hzcy002a hzcy003a hzcy004a hzcy005a
##     <dbl> <dbl> <fct>           <dbl>             <dbl>           <dbl>               <dbl>   <dbl>     <dbl>    <dbl>    <dbl>    <dbl>    <dbl>    <dbl>
##  1      2     1 10                  3                 2              98                   7       1         2        4        6        3        6        4
##  2      1     2 2                   3                 2               5                   3       2         2        4        6        6        6        4
##  3      1     1 8                   1                 2               2                   7       1         2        2        2        2        2        2
##  4      2     2 1                   3                 2              98                   1       2         3       NA       NA       NA       NA       NA
##  5      3     2 7                   3                 2               5                   2       2         2        6        6        4        6        6
##  6      2     2 7                   2                 2               1                   2       1         2        4        4        3        4        4
##  7      1     2 7                   3                 2               5                   3       1         1        4        4        3        4        4
##  8      2     1 7                   3                NA              NA                   3       1         3       NA       NA       NA       NA       NA
##  9      2     2 8                   3                 2              98                   3       1         2       NA       NA       NA       NA       NA
## 10      2     2 6                   2                NA              98                   5       1         2        4        6        3        6        7
## # ... with 3,755 more rows, and 97 more variables: hzcy006a <dbl>, hzcy007a <dbl>, hzcy008a <dbl>, hzcy009a <dbl>, hzcy010a <dbl>, hzcy011a <dbl>,
## #   hzcy012a <dbl>, hzcy013a <dbl>, hzcy014a <dbl>, hzcy015a <dbl>, hzcy016a <dbl>, hzcy018a <dbl>, hzcy019a <dbl>, hzcy020a <dbl>, hzcy021a <dbl>,
## #   hzcy022a <dbl>, hzcy023a <dbl>, hzcy024a <dbl>, hzcy025a <dbl>, hzcy026a <dbl>, hzcy027a <dbl>, hzcy028a <dbl>, hzcy029a <dbl>, hzcy030a <dbl>,
## #   hzcy031a <dbl>, hzcy032a <dbl>, hzcy033a <dbl>, hzcy034a <dbl>, hzcy035a <dbl>, hzcy036a <dbl>, hzcy037a <dbl>, hzcy038a <dbl>, hzcy039a <dbl>,
## #   hzcy040a <dbl>, hzcy041a <dbl>, hzcy042a <dbl>, hzcy043a <dbl>, hzcy044a <dbl>, hzcy045a <dbl>, hzcy046a <dbl>, hzcy047a <dbl>, hzcy048a <dbl>,
## #   hzcy049a <dbl>, hzcy050a <dbl>, hzcy051a <dbl>, hzcy052a <dbl>, hzcy053a <dbl>, hzcy054a <dbl>, hzcy055a <dbl>, hzcy056a <dbl>, hzcy057a <dbl>,
## #   hzcy058a <dbl>, hzcy059a <dbl>, hzcy060a <dbl>, hzcy061a <dbl>, hzcy062a <dbl>, hzcy063a <dbl>, hzcy064a <dbl>, hzcy065a <dbl>, hzcy066a <dbl>,
## #   hzcy067a <dbl>, hzcy068a <dbl>, hzcy069a <dbl>, hzcy070a <dbl>, hzcy071a <dbl>, hzcy072a <dbl>, hzcy073a <dbl>, hzcy074a <dbl>, hzcy075a <dbl>,
## #   hzcy076a <dbl>, hzcy077a <dbl>, hzcy078a <dbl>, hzcy079a <dbl>, hzcy080a <dbl>, hzcy081a <dbl>, hzcy083a <dbl>, hzcy084a <dbl>, hzcy085a <dbl>,
…
